\relax 
\providecommand\hyper@newdestlabel[2]{}
\providecommand\HyperFirstAtBeginDocument{\AtBeginDocument}
\HyperFirstAtBeginDocument{\ifx\hyper@anchor\@undefined
\global\let\oldcontentsline\contentsline
\gdef\contentsline#1#2#3#4{\oldcontentsline{#1}{#2}{#3}}
\global\let\oldnewlabel\newlabel
\gdef\newlabel#1#2{\newlabelxx{#1}#2}
\gdef\newlabelxx#1#2#3#4#5#6{\oldnewlabel{#1}{{#2}{#3}}}
\AtEndDocument{\ifx\hyper@anchor\@undefined
\let\contentsline\oldcontentsline
\let\newlabel\oldnewlabel
\fi}
\fi}
\global\let\hyper@last\relax 
\gdef\HyperFirstAtBeginDocument#1{#1}
\providecommand\HyField@AuxAddToFields[1]{}
\providecommand\HyField@AuxAddToCoFields[2]{}
\providecommand\babel@aux[2]{}
\@nameuse{bbl@beforestart}
\catcode `:\active 
\catcode `;\active 
\catcode `!\active 
\catcode `?\active 
\babel@aux{french}{}
\@writefile{toc}{\contentsline {section}{\numberline {0.1}Architecture globale}{2}{section.0.1}\protected@file@percent }
\@writefile{lof}{\contentsline {figure}{\numberline {1}{\ignorespaces Schéma général de fonctionnement}}{3}{figure.0.1}\protected@file@percent }
\newlabel{SchemaGeneral}{{1}{3}{Schéma général de fonctionnement}{figure.0.1}{}}
\@writefile{toc}{\contentsline {subsection}{\numberline {0.1.1}Scénario OpenViBE}{3}{subsection.0.1.1}\protected@file@percent }
\@writefile{toc}{\contentsline {subsection}{\numberline {0.1.2}Le moteur de règles}{4}{subsection.0.1.2}\protected@file@percent }
\@writefile{toc}{\contentsline {subsection}{\numberline {0.1.3}Compagnon}{4}{subsection.0.1.3}\protected@file@percent }
\@writefile{toc}{\contentsline {subsection}{\numberline {0.1.4}Adaptation de l'architecture}{4}{subsection.0.1.4}\protected@file@percent }
\citation{arndt2013effects}
\@writefile{lof}{\contentsline {figure}{\numberline {2}{\ignorespaces Schéma général de fonctionnement}}{5}{figure.0.2}\protected@file@percent }
\newlabel{SchemaDesignParticipatif}{{2}{5}{Schéma général de fonctionnement}{figure.0.2}{}}
\@writefile{lof}{\contentsline {figure}{\numberline {3}{\ignorespaces Schéma avec {\em  PerfSimulator}}}{5}{figure.0.3}\protected@file@percent }
\newlabel{SchemaPerfSimulator}{{3}{5}{Schéma avec {\em PerfSimulator}}{figure.0.3}{}}
\@writefile{lof}{\contentsline {figure}{\numberline {4}{\ignorespaces Schéma avec {\em  ServerGUI}}}{5}{figure.0.4}\protected@file@percent }
\newlabel{SchemaServerGUI}{{4}{5}{Schéma avec {\em ServerGUI}}{figure.0.4}{}}
\@writefile{toc}{\contentsline {section}{\numberline {0.2}Compagnon}{5}{section.0.2}\protected@file@percent }
\@writefile{toc}{\contentsline {subsubsection}{Commandes}{6}{section*.2}\protected@file@percent }
\@writefile{toc}{\contentsline {subsubsection}{Architecture}{6}{section*.3}\protected@file@percent }
\@writefile{toc}{\contentsline {subsubsection}{Animation}{6}{section*.4}\protected@file@percent }
\@writefile{toc}{\contentsline {subsubsection}{Implémentation}{6}{section*.5}\protected@file@percent }
\@writefile{lof}{\contentsline {figure}{\numberline {5}{\ignorespaces Exemples de points de synchronisation pour le comportement {\em  gesture} dans BML [source: BML specification]}}{7}{figure.0.5}\protected@file@percent }
\newlabel{BMLSynchro}{{5}{7}{Exemples de points de synchronisation pour le comportement {\em gesture} dans BML [source: BML specification]}{figure.0.5}{}}
\@writefile{toc}{\contentsline {subsubsection}{Ressources Qt}{7}{section*.6}\protected@file@percent }
\@writefile{toc}{\contentsline {section}{\numberline {0.3}Moteur de règles}{8}{section.0.3}\protected@file@percent }
\@writefile{toc}{\contentsline {section}{\numberline {0.4}Extension du compagnon}{8}{section.0.4}\protected@file@percent }
\@writefile{toc}{\contentsline {subsection}{\numberline {0.4.1}Création des animations}{8}{subsection.0.4.1}\protected@file@percent }
\@writefile{toc}{\contentsline {subsection}{\numberline {0.4.2}Ajout d'un nouveau visage}{8}{subsection.0.4.2}\protected@file@percent }
\@writefile{toc}{\contentsline {subsubsection}{format XML}{9}{section*.7}\protected@file@percent }
\@writefile{toc}{\contentsline {paragraph}{Animation}{9}{section*.8}\protected@file@percent }
\@writefile{toc}{\contentsline {paragraph}{AnimationSegment}{9}{section*.9}\protected@file@percent }
\@writefile{toc}{\contentsline {subsection}{\numberline {0.4.3}Création de nouveaux messages}{10}{subsection.0.4.3}\protected@file@percent }
\@writefile{toc}{\contentsline {subsubsection}{Text-To-Speech}{10}{section*.10}\protected@file@percent }
\@writefile{toc}{\contentsline {subsubsection}{Alignement}{10}{section*.11}\protected@file@percent }
\bibstyle{plain}
\bibdata{rapport}
\@writefile{toc}{\contentsline {subsubsection}{Compression}{11}{section*.12}\protected@file@percent }
\@writefile{toc}{\contentsline {subsection}{\numberline {0.4.4}Ajout de nouvelles voix}{11}{subsection.0.4.4}\protected@file@percent }
\@writefile{toc}{\contentsline {subsection}{\numberline {0.4.5}Compilation et déploiement}{11}{subsection.0.4.5}\protected@file@percent }
\@writefile{toc}{\contentsline {subsubsection}{Génération du fichier ressources}{11}{section*.13}\protected@file@percent }
\@writefile{toc}{\contentsline {subsubsection}{Compilation avec QtCreator}{11}{section*.14}\protected@file@percent }
\@writefile{toc}{\contentsline {subsubsection}{Installation sur smartphone Android}{11}{section*.15}\protected@file@percent }
\bibcite{arndt2013effects}{1}
\bibcite{Frey2015}{2}
\bibcite{Gupta2014}{3}
\bibcite{Vatra2014}{4}
\@writefile{toc}{\contentsline {chapter}{\numberline {A}Optimisation des images}{13}{appendix.A}\protected@file@percent }
\@writefile{lof}{\addvspace {10\p@ }}
\@writefile{lot}{\addvspace {10\p@ }}
\newlabel{ch:optimImages}{{A}{13}{Optimisation des images}{appendix.A}{}}
\@writefile{toc}{\contentsline {section}{\numberline {A.1}PNG}{13}{section.A.1}\protected@file@percent }
\newlabel{app:png}{{A.1}{13}{PNG}{section.A.1}{}}
\@writefile{toc}{\contentsline {paragraph}{OptiPNG}{13}{section*.17}\protected@file@percent }
\@writefile{toc}{\contentsline {paragraph}{Zopfli}{13}{section*.18}\protected@file@percent }
\@writefile{toc}{\contentsline {paragraph}{Benchmarks}{14}{section*.19}\protected@file@percent }
\@writefile{toc}{\contentsline {section}{\numberline {A.2}WebP versus PNG}{15}{section.A.2}\protected@file@percent }
\newlabel{app:webp}{{A.2}{15}{WebP versus PNG}{section.A.2}{}}
\@writefile{toc}{\contentsline {paragraph}{benchmarks}{15}{section*.20}\protected@file@percent }
\@writefile{toc}{\contentsline {paragraph}{Compression avec perte}{16}{section*.21}\protected@file@percent }
\@writefile{toc}{\contentsline {chapter}{\numberline {B}TTS}{17}{appendix.B}\protected@file@percent }
\@writefile{lof}{\addvspace {10\p@ }}
\@writefile{lot}{\addvspace {10\p@ }}
\newlabel{ch:TTS}{{B}{17}{TTS}{appendix.B}{}}
\@writefile{toc}{\contentsline {section}{\numberline {B.1}TTS sous OSX}{17}{section.B.1}\protected@file@percent }
\newlabel{app:TTSOSX}{{B.1}{17}{TTS sous OSX}{section.B.1}{}}
\@writefile{toc}{\contentsline {section}{\numberline {B.2}TTS via Google}{17}{section.B.2}\protected@file@percent }
\newlabel{app:TTSGOOGLE}{{B.2}{17}{TTS via Google}{section.B.2}{}}
\citation{Gupta2014}
\@writefile{toc}{\contentsline {section}{\numberline {B.3}Étude de l'existant TTS}{18}{section.B.3}\protected@file@percent }
\newlabel{app:autresTTS}{{B.3}{18}{Étude de l'existant TTS}{section.B.3}{}}
\@writefile{toc}{\contentsline {subsubsection}{TTS opensource}{18}{section*.22}\protected@file@percent }
\citation{Frey2015}
\@writefile{toc}{\contentsline {paragraph}{espeak}{19}{section*.23}\protected@file@percent }
\@writefile{toc}{\contentsline {paragraph}{MBrola}{19}{section*.24}\protected@file@percent }
\@writefile{toc}{\contentsline {paragraph}{MaryTTS}{19}{section*.25}\protected@file@percent }
\@writefile{toc}{\contentsline {paragraph}{gnuspeech}{19}{section*.26}\protected@file@percent }
\@writefile{toc}{\contentsline {paragraph}{Festival}{19}{section*.27}\protected@file@percent }
\@writefile{toc}{\contentsline {paragraph}{CMU Flite}{20}{section*.28}\protected@file@percent }
\@writefile{toc}{\contentsline {paragraph}{FreeTTS}{20}{section*.29}\protected@file@percent }
\@writefile{toc}{\contentsline {paragraph}{Sinsy}{20}{section*.30}\protected@file@percent }
\@writefile{toc}{\contentsline {paragraph}{emofilt}{20}{section*.31}\protected@file@percent }
\@writefile{toc}{\contentsline {subsubsection}{TTS commerciaux}{20}{section*.32}\protected@file@percent }
\@writefile{toc}{\contentsline {paragraph}{Voxygen}{20}{section*.33}\protected@file@percent }
\@writefile{toc}{\contentsline {paragraph}{acapela}{21}{section*.34}\protected@file@percent }
\@writefile{toc}{\contentsline {paragraph}{Nuance}{21}{section*.35}\protected@file@percent }
\@writefile{toc}{\contentsline {paragraph}{NeoSpeech}{21}{section*.36}\protected@file@percent }
\@writefile{toc}{\contentsline {paragraph}{Ivona}{21}{section*.37}\protected@file@percent }
\@writefile{toc}{\contentsline {paragraph}{oddcast}{21}{section*.38}\protected@file@percent }
\@writefile{toc}{\contentsline {paragraph}{CereProc}{22}{section*.39}\protected@file@percent }
\@writefile{toc}{\contentsline {chapter}{\numberline {C}Alignement avec Sphinx3}{23}{appendix.C}\protected@file@percent }
\@writefile{lof}{\addvspace {10\p@ }}
\@writefile{lot}{\addvspace {10\p@ }}
\newlabel{ch:alignSphinx}{{C}{23}{Alignement avec Sphinx3}{appendix.C}{}}
\@writefile{toc}{\contentsline {section}{\numberline {C.1}Installation}{23}{section.C.1}\protected@file@percent }
\@writefile{toc}{\contentsline {section}{\numberline {C.2}Utilisation}{24}{section.C.2}\protected@file@percent }
\@writefile{toc}{\contentsline {paragraph}{Conversion en WAV}{24}{section*.40}\protected@file@percent }
\@writefile{toc}{\contentsline {paragraph}{Alignement}{24}{section*.41}\protected@file@percent }
\@writefile{toc}{\contentsline {section}{\numberline {C.3}Troobleshooting}{24}{section.C.3}\protected@file@percent }
\@writefile{toc}{\contentsline {chapter}{\numberline {D}Compression des fichiers son}{26}{appendix.D}\protected@file@percent }
\@writefile{lof}{\addvspace {10\p@ }}
\@writefile{lot}{\addvspace {10\p@ }}
\newlabel{ch:compressSon}{{D}{26}{Compression des fichiers son}{appendix.D}{}}
\@writefile{toc}{\contentsline {section}{\numberline {D.1}Benchmark}{26}{section.D.1}\protected@file@percent }
\@writefile{toc}{\contentsline {section}{\numberline {D.2}Windows}{27}{section.D.2}\protected@file@percent }
\@writefile{toc}{\contentsline {section}{\numberline {D.3}Linux}{27}{section.D.3}\protected@file@percent }
\@writefile{toc}{\contentsline {chapter}{\numberline {E}Installation de l'environnement de développement sous Windows}{28}{appendix.E}\protected@file@percent }
\@writefile{lof}{\addvspace {10\p@ }}
\@writefile{lot}{\addvspace {10\p@ }}
\@writefile{toc}{\contentsline {section}{\numberline {E.1}Git}{28}{section.E.1}\protected@file@percent }
\newlabel{app:GitWindows}{{E.1}{28}{Git}{section.E.1}{}}
\@writefile{toc}{\contentsline {section}{\numberline {E.2}OpenViBE}{28}{section.E.2}\protected@file@percent }
\@writefile{toc}{\contentsline {section}{\numberline {E.3}CMake}{29}{section.E.3}\protected@file@percent }
\newlabel{sec:CMakeWindows}{{E.3}{29}{CMake}{section.E.3}{}}
\@writefile{toc}{\contentsline {section}{\numberline {E.4}Android}{29}{section.E.4}\protected@file@percent }
\newlabel{app:AndroidWindows}{{E.4}{29}{Android}{section.E.4}{}}
\@writefile{toc}{\contentsline {section}{\numberline {E.5}Ant}{30}{section.E.5}\protected@file@percent }
\@writefile{toc}{\contentsline {section}{\numberline {E.6}Qt for Android}{30}{section.E.6}\protected@file@percent }
\newlabel{app:QtAndroidWindows}{{E.6}{30}{Qt for Android}{section.E.6}{}}
\@writefile{toc}{\contentsline {section}{\numberline {E.7}LSL}{30}{section.E.7}\protected@file@percent }
\newlabel{sec:LSLWindows}{{E.7}{30}{LSL}{section.E.7}{}}
\@writefile{toc}{\contentsline {chapter}{\numberline {F}Installation de l'environnement de développement sous linux}{32}{appendix.F}\protected@file@percent }
\@writefile{lof}{\addvspace {10\p@ }}
\@writefile{lot}{\addvspace {10\p@ }}
\@writefile{toc}{\contentsline {section}{\numberline {F.1}OpenViBE}{32}{section.F.1}\protected@file@percent }
\@writefile{toc}{\contentsline {section}{\numberline {F.2}Android}{33}{section.F.2}\protected@file@percent }
\newlabel{app:AndroidLinux}{{F.2}{33}{Android}{section.F.2}{}}
\@writefile{toc}{\contentsline {section}{\numberline {F.3}Qt for Android}{34}{section.F.3}\protected@file@percent }
\newlabel{app:QtAndroidLinux}{{F.3}{34}{Qt for Android}{section.F.3}{}}
\@writefile{toc}{\contentsline {chapter}{\numberline {G}Compilation}{35}{appendix.G}\protected@file@percent }
\@writefile{lof}{\addvspace {10\p@ }}
\@writefile{lot}{\addvspace {10\p@ }}
\newlabel{app:Compilation}{{G}{35}{Compilation}{appendix.G}{}}
\@writefile{toc}{\contentsline {section}{\numberline {G.1}Qt Creator}{35}{section.G.1}\protected@file@percent }
\@writefile{toc}{\contentsline {section}{\numberline {G.2}Script}{36}{section.G.2}\protected@file@percent }
\@writefile{toc}{\contentsline {section}{\numberline {G.3}Bibliothèques dynamiques}{37}{section.G.3}\protected@file@percent }
\@writefile{toc}{\contentsline {chapter}{\numberline {H}Execution}{38}{appendix.H}\protected@file@percent }
\@writefile{lof}{\addvspace {10\p@ }}
\@writefile{lot}{\addvspace {10\p@ }}
\@writefile{toc}{\contentsline {chapter}{\numberline {I}Déploiement}{39}{appendix.I}\protected@file@percent }
\@writefile{lof}{\addvspace {10\p@ }}
\@writefile{lot}{\addvspace {10\p@ }}
\newlabel{app:Deploiement}{{I}{39}{Déploiement}{appendix.I}{}}
\@writefile{toc}{\contentsline {paragraph}{Activation du mode développeur}{39}{section*.42}\protected@file@percent }
\@writefile{toc}{\contentsline {paragraph}{Vérifier que le smartphone est correctement reconnu}{39}{section*.43}\protected@file@percent }
\@writefile{toc}{\contentsline {paragraph}{Déploiement effectif}{40}{section*.44}\protected@file@percent }
\@writefile{toc}{\contentsline {chapter}{\numberline {J}Découpage des fichiers Ressources}{41}{appendix.J}\protected@file@percent }
\@writefile{lof}{\addvspace {10\p@ }}
\@writefile{lot}{\addvspace {10\p@ }}
\newlabel{ch:decoupageQRC}{{J}{41}{Découpage des fichiers Ressources}{appendix.J}{}}
\@writefile{toc}{\contentsline {chapter}{\numberline {K}Plein écran et non mise en veille avec Qt/Android}{42}{appendix.K}\protected@file@percent }
\@writefile{lof}{\addvspace {10\p@ }}
\@writefile{lot}{\addvspace {10\p@ }}
\newlabel{ch:androidSpecific}{{K}{42}{Plein écran et non mise en veille avec Qt/Android}{appendix.K}{}}
\@writefile{toc}{\contentsline {section}{\numberline {K.1}Appel JNI from main}{42}{section.K.1}\protected@file@percent }
\citation{Vatra2014}
\@writefile{toc}{\contentsline {section}{\numberline {K.2}Héritage de QtActivity}{43}{section.K.2}\protected@file@percent }
\@writefile{toc}{\contentsline {chapter}{\numberline {L}Synfig}{45}{appendix.L}\protected@file@percent }
\@writefile{lof}{\addvspace {10\p@ }}
\@writefile{lot}{\addvspace {10\p@ }}
\@writefile{toc}{\contentsline {chapter}{\numberline {M}LSL}{46}{appendix.M}\protected@file@percent }
\@writefile{lof}{\addvspace {10\p@ }}
\@writefile{lot}{\addvspace {10\p@ }}
\@writefile{toc}{\contentsline {section}{\numberline {M.1}LSL version 1.10.2}{46}{section.M.1}\protected@file@percent }
\@writefile{toc}{\contentsline {section}{\numberline {M.2}LSL version git}{47}{section.M.2}\protected@file@percent }
\@writefile{toc}{\contentsline {chapter}{\numberline {N}Alcatel OneTouch Idol 3}{49}{appendix.N}\protected@file@percent }
\@writefile{lof}{\addvspace {10\p@ }}
\@writefile{lot}{\addvspace {10\p@ }}
\@writefile{toc}{\contentsline {section}{\numberline {N.1}Sous Windows}{49}{section.N.1}\protected@file@percent }
\@writefile{toc}{\contentsline {subsection}{\numberline {N.1.1}driver MTP}{50}{subsection.N.1.1}\protected@file@percent }
