<?xml version="1.0" encoding="UTF-8" standalone="no"?>
<!-- Created with Inkscape (http://www.inkscape.org/) -->

<svg
   xmlns:dc="http://purl.org/dc/elements/1.1/"
   xmlns:cc="http://creativecommons.org/ns#"
   xmlns:rdf="http://www.w3.org/1999/02/22-rdf-syntax-ns#"
   xmlns:svg="http://www.w3.org/2000/svg"
   xmlns="http://www.w3.org/2000/svg"
   xmlns:sodipodi="http://sodipodi.sourceforge.net/DTD/sodipodi-0.dtd"
   xmlns:inkscape="http://www.inkscape.org/namespaces/inkscape"
   width="210mm"
   height="297mm"
   viewBox="0 0 744.09448819 1052.3622047"
   id="svg2"
   version="1.1"
   inkscape:version="0.91 r13725"
   sodipodi:docname="rules.svg"
   inkscape:export-filename="/home/mansenca/rules.png"
   inkscape:export-xdpi="90"
   inkscape:export-ydpi="90">
  <defs
     id="defs4" />
  <sodipodi:namedview
     id="base"
     pagecolor="#ffffff"
     bordercolor="#666666"
     borderopacity="1.0"
     inkscape:pageopacity="0.0"
     inkscape:pageshadow="2"
     inkscape:zoom="0.7"
     inkscape:cx="482.23722"
     inkscape:cy="742.85714"
     inkscape:document-units="px"
     inkscape:current-layer="layer1"
     showgrid="false"
     inkscape:window-width="1420"
     inkscape:window-height="724"
     inkscape:window-x="0"
     inkscape:window-y="27"
     inkscape:window-maximized="1" />
  <metadata
     id="metadata7">
    <rdf:RDF>
      <cc:Work
         rdf:about="">
        <dc:format>image/svg+xml</dc:format>
        <dc:type
           rdf:resource="http://purl.org/dc/dcmitype/StillImage" />
        <dc:title></dc:title>
      </cc:Work>
    </rdf:RDF>
  </metadata>
  <g
     inkscape:label="Calque 1"
     inkscape:groupmode="layer"
     id="layer1">
    <path
       style="fill:#000000;fill-opacity:1;fill-rule:evenodd;stroke:#00b7bf;stroke-width:3.5999999;stroke-linecap:butt;stroke-linejoin:miter;stroke-miterlimit:4;stroke-dasharray:none;stroke-opacity:1"
       d="m 66.47486,108.25419 c 603,0 603,0 603,0"
       id="path3336"
       inkscape:connector-curvature="0" />
    <path
       style="fill:none;fill-rule:evenodd;stroke:#00b7bf;stroke-width:3.5999999;stroke-linecap:butt;stroke-linejoin:miter;stroke-miterlimit:4;stroke-dasharray:none;stroke-opacity:1"
       d="m 67.117719,87.039909 0,42.428571"
       id="path4138"
       inkscape:connector-curvature="0" />
    <path
       style="fill:none;fill-rule:evenodd;stroke:#00b7bf;stroke-width:3.5999999;stroke-linecap:butt;stroke-linejoin:miter;stroke-miterlimit:4;stroke-dasharray:none;stroke-opacity:1"
       d="m 175.76057,87.039909 0,42.428571"
       id="path4138-6"
       inkscape:connector-curvature="0" />
    <path
       style="fill:none;fill-rule:evenodd;stroke:#00b7bf;stroke-width:3.5999999;stroke-linecap:butt;stroke-linejoin:miter;stroke-miterlimit:4;stroke-dasharray:none;stroke-opacity:1"
       d="m 306.90343,87.039909 0,42.428571"
       id="path4138-7"
       inkscape:connector-curvature="0" />
    <path
       style="fill:none;fill-rule:evenodd;stroke:#00b7bf;stroke-width:3.5999999;stroke-linecap:butt;stroke-linejoin:miter;stroke-miterlimit:4;stroke-dasharray:none;stroke-opacity:1"
       d="m 462.47486,87.039909 0,42.428571"
       id="path4138-3"
       inkscape:connector-curvature="0" />
    <path
       style="fill:none;fill-rule:evenodd;stroke:#00b7bf;stroke-width:3.5999999;stroke-linecap:butt;stroke-linejoin:miter;stroke-miterlimit:4;stroke-dasharray:none;stroke-opacity:1"
       d="m 579.08915,87.039909 0,42.428571"
       id="path4138-37"
       inkscape:connector-curvature="0" />
    <path
       style="fill:none;fill-rule:evenodd;stroke:#00b7bf;stroke-width:3.5999999;stroke-linecap:butt;stroke-linejoin:miter;stroke-miterlimit:4;stroke-dasharray:none;stroke-opacity:1"
       d="m 668.18915,87.039909 0,42.428571"
       id="path4138-37-7"
       inkscape:connector-curvature="0" />
    <g
       id="g4230"
       transform="matrix(0.9,0,0,0.9,36.903432,212.8425)"
       style="stroke:#0031be;stroke-opacity:1">
      <path
         inkscape:connector-curvature="0"
         id="path3336-5"
         d="m 33.928573,243.79077 c 669.999997,0 669.999997,0 669.999997,0"
         style="fill:#000000;fill-opacity:1;fill-rule:evenodd;stroke:#0031be;stroke-width:4;stroke-linecap:butt;stroke-linejoin:miter;stroke-miterlimit:4;stroke-dasharray:none;stroke-opacity:1" />
      <path
         inkscape:connector-curvature="0"
         id="path4138-4"
         d="m 34.642863,220.21935 0,47.14286"
         style="fill:none;fill-rule:evenodd;stroke:#0031be;stroke-width:4;stroke-linecap:butt;stroke-linejoin:miter;stroke-miterlimit:4;stroke-dasharray:none;stroke-opacity:1" />
      <path
         inkscape:connector-curvature="0"
         id="path4138-6-3"
         d="m 255.357,220.21935 0,47.14286"
         style="fill:none;fill-rule:evenodd;stroke:#0031be;stroke-width:4;stroke-linecap:butt;stroke-linejoin:miter;stroke-miterlimit:4;stroke-dasharray:none;stroke-opacity:1" />
      <path
         inkscape:connector-curvature="0"
         id="path4138-3-4"
         d="m 473.92857,220.21935 0,47.14286"
         style="fill:none;fill-rule:evenodd;stroke:#0031be;stroke-width:4;stroke-linecap:butt;stroke-linejoin:miter;stroke-miterlimit:4;stroke-dasharray:none;stroke-opacity:1" />
      <path
         inkscape:connector-curvature="0"
         id="path4138-37-5"
         d="m 596.78571,220.21935 0,47.14285"
         style="fill:none;fill-rule:evenodd;stroke:#0031be;stroke-width:4;stroke-linecap:butt;stroke-linejoin:miter;stroke-miterlimit:4;stroke-dasharray:none;stroke-opacity:1" />
      <path
         inkscape:connector-curvature="0"
         id="path4138-37-7-6"
         d="m 702.5,220.21935 0,47.14286"
         style="fill:none;fill-rule:evenodd;stroke:#0031be;stroke-width:4;stroke-linecap:butt;stroke-linejoin:miter;stroke-miterlimit:4;stroke-dasharray:none;stroke-opacity:1" />
    </g>
    <text
       xml:space="preserve"
       style="font-style:normal;font-weight:normal;font-size:36px;line-height:125%;font-family:sans-serif;letter-spacing:0px;word-spacing:0px;fill:#00b7bf;fill-opacity:1;stroke:none;stroke-width:1px;stroke-linecap:butt;stroke-linejoin:miter;stroke-opacity:1"
       x="36.903431"
       y="64.539909"
       id="text4238"
       sodipodi:linespacing="125%"><tspan
         sodipodi:role="line"
         id="tspan4240"
         x="36.903431"
         y="64.539909">Progress</tspan></text>
    <text
       xml:space="preserve"
       style="font-style:normal;font-weight:normal;font-size:21.60000038px;line-height:125%;font-family:sans-serif;letter-spacing:0px;word-spacing:0px;fill:#00b7bf;fill-opacity:1;stroke:none;stroke-width:1px;stroke-linecap:butt;stroke-linejoin:miter;stroke-opacity:1"
       x="73.314255"
       y="97.852974"
       id="text4242"
       sodipodi:linespacing="125%"><tspan
         sodipodi:role="line"
         id="tspan4248"
         x="73.314255"
         y="97.852974">Very bad</tspan></text>
    <text
       xml:space="preserve"
       style="font-style:normal;font-weight:normal;font-size:21.60000038px;line-height:125%;font-family:sans-serif;letter-spacing:0px;word-spacing:0px;fill:#00b7bf;fill-opacity:1;stroke:none;stroke-width:1px;stroke-linecap:butt;stroke-linejoin:miter;stroke-opacity:1"
       x="218.85863"
       y="96.213181"
       id="text4242-8"
       sodipodi:linespacing="125%"><tspan
         sodipodi:role="line"
         id="tspan4248-3"
         x="218.85863"
         y="96.213181">Bad</tspan></text>
    <text
       xml:space="preserve"
       style="font-style:normal;font-weight:normal;font-size:21.60000038px;line-height:125%;font-family:sans-serif;letter-spacing:0px;word-spacing:0px;fill:#00b7bf;fill-opacity:1;stroke:none;stroke-width:1px;stroke-linecap:butt;stroke-linejoin:miter;stroke-opacity:1"
       x="343.79868"
       y="97.021019"
       id="text4242-8-6"
       sodipodi:linespacing="125%"><tspan
         sodipodi:role="line"
         id="tspan4248-3-3"
         x="343.79868"
         y="97.021019">Average</tspan></text>
    <text
       xml:space="preserve"
       style="font-style:normal;font-weight:normal;font-size:21.60000038px;line-height:125%;font-family:sans-serif;letter-spacing:0px;word-spacing:0px;fill:#00b7bf;fill-opacity:1;stroke:none;stroke-width:1px;stroke-linecap:butt;stroke-linejoin:miter;stroke-opacity:1"
       x="486.51297"
       y="95.735298"
       id="text4242-8-0"
       sodipodi:linespacing="125%"><tspan
         sodipodi:role="line"
         id="tspan4248-3-9"
         x="486.51297"
         y="95.735298">Good</tspan></text>
    <text
       xml:space="preserve"
       style="font-style:normal;font-weight:normal;font-size:21.60000038px;line-height:125%;font-family:sans-serif;letter-spacing:0px;word-spacing:0px;fill:#00b7bf;fill-opacity:1;stroke:none;stroke-width:1px;stroke-linecap:butt;stroke-linejoin:miter;stroke-opacity:1"
       x="581.65576"
       y="97.021019"
       id="text4242-8-8"
       sodipodi:linespacing="125%"><tspan
         sodipodi:role="line"
         id="tspan4248-3-8"
         x="581.65576"
         y="97.021019">VeryGood</tspan></text>
    <g
       id="g4410"
       transform="matrix(0.9,0,0,0.9,34.332004,31.556782)">
      <rect
         y="116.347"
         x="25.41338"
         height="62.030388"
         width="129.17325"
         id="rect4302"
         style="fill:#ffff00;fill-opacity:1;stroke:#00b7bf;stroke-width:3.39818573;stroke-miterlimit:4;stroke-dasharray:none;stroke-opacity:1" />
      <text
         sodipodi:linespacing="125%"
         id="text4304"
         y="132.44255"
         x="29.702679"
         style="font-style:normal;font-weight:normal;font-size:14.39999962px;line-height:125%;font-family:sans-serif;text-align:start;letter-spacing:0px;word-spacing:0px;writing-mode:lr-tb;text-anchor:start;fill:#000000;fill-opacity:1;stroke:none;stroke-width:1px;stroke-linecap:butt;stroke-linejoin:miter;stroke-opacity:1"
         xml:space="preserve"><tspan
           y="132.44255"
           x="29.702679"
           id="tspan4308"
           sodipodi:role="line">phrases :</tspan></text>
      <text
         sodipodi:linespacing="125%"
         id="text4310"
         y="155.29971"
         x="29.84108"
         style="font-style:normal;font-weight:normal;font-size:14.39999962px;line-height:125%;font-family:sans-serif;letter-spacing:0px;word-spacing:0px;fill:#000000;fill-opacity:1;stroke:none;stroke-width:1px;stroke-linecap:butt;stroke-linejoin:miter;stroke-opacity:1"
         xml:space="preserve"><tspan
           y="155.29971"
           x="29.84108"
           id="tspan4312"
           sodipodi:role="line">Strategy/Change</tspan></text>
    </g>
    <rect
       style="fill:#ffff00;fill-opacity:1;stroke:#00b7bf;stroke-width:3.85504365;stroke-miterlimit:4;stroke-dasharray:none;stroke-opacity:1"
       id="rect4302-2"
       width="121.88782"
       height="84.602097"
       x="182.31667"
       y="136.02457" />
    <text
       xml:space="preserve"
       style="font-style:normal;font-weight:normal;font-size:12.96000004px;line-height:125%;font-family:sans-serif;text-align:start;letter-spacing:0px;word-spacing:0px;writing-mode:lr-tb;text-anchor:start;fill:#000000;fill-opacity:1;stroke:none;stroke-width:1px;stroke-linecap:butt;stroke-linejoin:miter;stroke-opacity:1"
       x="187.06441"
       y="151.39795"
       id="text4304-0"
       sodipodi:linespacing="125%"><tspan
         sodipodi:role="line"
         id="tspan4308-0"
         x="187.06441"
         y="151.39795">phrases :</tspan></text>
    <text
       xml:space="preserve"
       style="font-style:normal;font-weight:normal;font-size:12.96000004px;line-height:125%;font-family:sans-serif;letter-spacing:0px;word-spacing:0px;fill:#000000;fill-opacity:1;stroke:none;stroke-width:1px;stroke-linecap:butt;stroke-linejoin:miter;stroke-opacity:1"
       x="187.18896"
       y="171.96939"
       id="text4310-6"
       sodipodi:linespacing="125%"><tspan
         sodipodi:role="line"
         id="tspan4312-7"
         x="187.18896"
         y="171.96939">General effort</tspan></text>
    <text
       xml:space="preserve"
       style="font-style:normal;font-weight:normal;font-size:12.96000004px;line-height:125%;font-family:sans-serif;letter-spacing:0px;word-spacing:0px;fill:#000000;fill-opacity:1;stroke:none;stroke-width:1px;stroke-linecap:butt;stroke-linejoin:miter;stroke-opacity:1"
       x="186.88023"
       y="191.51428"
       id="text4310-6-8"
       sodipodi:linespacing="125%"><tspan
         sodipodi:role="line"
         id="tspan4312-7-6"
         x="186.88023"
         y="191.51428">Support effort</tspan></text>
    <text
       xml:space="preserve"
       style="font-style:normal;font-weight:normal;font-size:12.96000004px;line-height:125%;font-family:sans-serif;letter-spacing:0px;word-spacing:0px;fill:#000000;fill-opacity:1;stroke:none;stroke-width:1px;stroke-linecap:butt;stroke-linejoin:miter;stroke-opacity:1"
       x="186.88025"
       y="210.8"
       id="text4310-6-9"
       sodipodi:linespacing="125%"
       inkscape:transform-center-x="-2.5714241"
       inkscape:transform-center-y="-6.428571"><tspan
         sodipodi:role="line"
         id="tspan4312-7-69"
         x="186.88025"
         y="210.8">General empathy</tspan></text>
    <text
       xml:space="preserve"
       style="font-style:normal;font-weight:normal;font-size:138.29760742px;line-height:125%;font-family:sans-serif;letter-spacing:0px;word-spacing:0px;fill:#000000;fill-opacity:1;stroke:none;stroke-width:1px;stroke-linecap:butt;stroke-linejoin:miter;stroke-opacity:1"
       x="-357.50854"
       y="425.18671"
       id="text4379"
       sodipodi:linespacing="125%"
       transform="matrix(0,-1,1,0,0,0)"><tspan
         sodipodi:role="line"
         id="tspan4381"
         x="-357.50854"
         y="425.18671">{</tspan></text>
    <rect
       style="fill:#ffff00;fill-opacity:1;stroke:#00b7bf;stroke-width:3.00918651;stroke-miterlimit:4;stroke-dasharray:none;stroke-opacity:1"
       id="rect4302-5"
       width="112.44796"
       height="55.87653"
       x="463.46518"
       y="138.17307" />
    <text
       xml:space="preserve"
       style="font-style:normal;font-weight:normal;font-size:12.96000004px;line-height:125%;font-family:sans-serif;text-align:start;letter-spacing:0px;word-spacing:0px;writing-mode:lr-tb;text-anchor:start;fill:#000000;fill-opacity:1;stroke:none;stroke-width:1px;stroke-linecap:butt;stroke-linejoin:miter;stroke-opacity:1"
       x="470.81213"
       y="156.54079"
       id="text4304-1"
       sodipodi:linespacing="125%"><tspan
         sodipodi:role="line"
         id="tspan4308-8"
         x="470.81213"
         y="156.54079">phrases :</tspan></text>
    <text
       xml:space="preserve"
       style="font-style:normal;font-weight:normal;font-size:12.96000004px;line-height:125%;font-family:sans-serif;letter-spacing:0px;word-spacing:0px;fill:#000000;fill-opacity:1;stroke:none;stroke-width:1px;stroke-linecap:butt;stroke-linejoin:miter;stroke-opacity:1"
       x="471.61722"
       y="177.11224"
       id="text4310-3"
       sodipodi:linespacing="125%"><tspan
         sodipodi:role="line"
         id="tspan4312-5"
         x="471.61722"
         y="177.11224">Progress/Good</tspan></text>
    <rect
       style="fill:#ffff00;fill-opacity:1;stroke:#00b7bf;stroke-width:3.73878527;stroke-miterlimit:4;stroke-dasharray:none;stroke-opacity:1"
       id="rect4302-5-0"
       width="137.43265"
       height="70.5755"
       x="584.04425"
       y="137.25217" />
    <text
       xml:space="preserve"
       style="font-style:normal;font-weight:normal;font-size:12.96000004px;line-height:125%;font-family:sans-serif;text-align:start;letter-spacing:0px;word-spacing:0px;writing-mode:lr-tb;text-anchor:start;fill:#000000;fill-opacity:1;stroke:none;stroke-width:1px;stroke-linecap:butt;stroke-linejoin:miter;stroke-opacity:1"
       x="591.02637"
       y="155.2551"
       id="text4304-1-4"
       sodipodi:linespacing="125%"><tspan
         sodipodi:role="line"
         id="tspan4308-8-0"
         x="591.02637"
         y="155.2551">phrases :</tspan></text>
    <text
       xml:space="preserve"
       style="font-style:normal;font-weight:normal;font-size:12.96000004px;line-height:125%;font-family:sans-serif;letter-spacing:0px;word-spacing:0px;fill:#000000;fill-opacity:1;stroke:none;stroke-width:1px;stroke-linecap:butt;stroke-linejoin:miter;stroke-opacity:1"
       x="591.83148"
       y="175.82655"
       id="text4310-3-0"
       sodipodi:linespacing="125%"><tspan
         sodipodi:role="line"
         id="tspan4312-5-1"
         x="591.83148"
         y="175.82655">Progress/Very good</tspan></text>
    <text
       xml:space="preserve"
       style="font-style:normal;font-weight:normal;font-size:12.96000004px;line-height:125%;font-family:sans-serif;letter-spacing:0px;word-spacing:0px;fill:#000000;fill-opacity:1;stroke:none;stroke-width:1px;stroke-linecap:butt;stroke-linejoin:miter;stroke-opacity:1"
       x="592.78796"
       y="194.1153"
       id="text4310-3-0-5"
       sodipodi:linespacing="125%"><tspan
         sodipodi:role="line"
         id="tspan4312-5-1-2"
         x="592.78796"
         y="194.1153">Strategy/Keep</tspan></text>
    <g
       id="g4865"
       transform="matrix(0.9,0,0,0.9,38.189147,30.271066)">
      <rect
         y="227.06129"
         x="21.127661"
         height="62.030388"
         width="129.17325"
         id="rect4302-7"
         style="fill:#f7f2e9;fill-opacity:1;stroke:#f05921;stroke-width:3.39818573;stroke-miterlimit:4;stroke-dasharray:none;stroke-opacity:1" />
      <text
         sodipodi:linespacing="125%"
         id="text4304-9"
         y="243.15685"
         x="25.41696"
         style="font-style:normal;font-weight:normal;font-size:14.39999962px;line-height:125%;font-family:sans-serif;text-align:start;letter-spacing:0px;word-spacing:0px;writing-mode:lr-tb;text-anchor:start;fill:#000000;fill-opacity:1;stroke:none;stroke-width:1px;stroke-linecap:butt;stroke-linejoin:miter;stroke-opacity:1"
         xml:space="preserve"><tspan
           y="243.15685"
           x="25.41696"
           id="tspan4308-9"
           sodipodi:role="line">face :</tspan></text>
    </g>
    <g
       id="g4860"
       transform="matrix(0.9,0,0,0.9,38.189147,30.271071)">
      <rect
         y="227.08815"
         x="159.72595"
         height="61.976665"
         width="133.40524"
         id="rect4302-7-7"
         style="fill:#f7f2e9;fill-opacity:1;stroke:#f05921;stroke-width:3.4519074;stroke-miterlimit:4;stroke-dasharray:none;stroke-opacity:1" />
      <text
         sodipodi:linespacing="125%"
         id="text4304-9-1"
         y="243.15685"
         x="168.27411"
         style="font-style:normal;font-weight:normal;font-size:14.39999962px;line-height:125%;font-family:sans-serif;text-align:start;letter-spacing:0px;word-spacing:0px;writing-mode:lr-tb;text-anchor:start;fill:#000000;fill-opacity:1;stroke:none;stroke-width:1px;stroke-linecap:butt;stroke-linejoin:miter;stroke-opacity:1"
         xml:space="preserve"><tspan
           y="243.15685"
           x="168.27411"
           id="tspan4308-9-3"
           sodipodi:role="line">face :</tspan></text>
    </g>
    <g
       id="g4855"
       transform="matrix(0.9,0,0,0.9,38.189147,31.556782)">
      <rect
         y="225.57759"
         x="475.35825"
         height="62.140648"
         width="120.71208"
         id="rect4302-7-5"
         style="fill:#f7f2e9;fill-opacity:1;stroke:#f05921;stroke-width:3.28792453;stroke-miterlimit:4;stroke-dasharray:none;stroke-opacity:1" />
      <text
         sodipodi:linespacing="125%"
         id="text4304-9-6"
         y="241.72827"
         x="479.70267"
         style="font-style:normal;font-weight:normal;font-size:14.39999962px;line-height:125%;font-family:sans-serif;text-align:start;letter-spacing:0px;word-spacing:0px;writing-mode:lr-tb;text-anchor:start;fill:#000000;fill-opacity:1;stroke:none;stroke-width:1px;stroke-linecap:butt;stroke-linejoin:miter;stroke-opacity:1"
         xml:space="preserve"><tspan
           y="241.72827"
           x="479.70267"
           id="tspan4308-9-4"
           sodipodi:role="line">face :</tspan></text>
    </g>
    <g
       id="g4850"
       transform="matrix(0.9,0,0,0.9,38.189147,31.556778)">
      <rect
         y="225.75446"
         x="608.39221"
         height="61.786926"
         width="148.92979"
         id="rect4302-7-1"
         style="fill:#f7f2e9;fill-opacity:1;stroke:#f05921;stroke-width:3.64164543;stroke-miterlimit:4;stroke-dasharray:none;stroke-opacity:1" />
      <text
         sodipodi:linespacing="125%"
         id="text4304-9-8"
         y="241.72827"
         x="615.41693"
         style="font-style:normal;font-weight:normal;font-size:14.39999962px;line-height:125%;font-family:sans-serif;text-align:start;letter-spacing:0px;word-spacing:0px;writing-mode:lr-tb;text-anchor:start;fill:#000000;fill-opacity:1;stroke:none;stroke-width:1px;stroke-linecap:butt;stroke-linejoin:miter;stroke-opacity:1"
         xml:space="preserve"><tspan
           y="241.72827"
           x="615.41693"
           id="tspan4308-9-42"
           sodipodi:role="line">face :</tspan></text>
    </g>
    <text
       xml:space="preserve"
       style="font-style:normal;font-weight:normal;font-size:36px;line-height:125%;font-family:sans-serif;letter-spacing:0px;word-spacing:0px;fill:#0031be;fill-opacity:1;stroke:none;stroke-width:1px;stroke-linecap:butt;stroke-linejoin:miter;stroke-opacity:1"
       x="320.42352"
       y="379.91788"
       id="text4238-0"
       sodipodi:linespacing="125%"><tspan
         sodipodi:role="line"
         id="tspan4240-0"
         x="320.42352"
         y="379.91788">Results</tspan></text>
    <text
       xml:space="preserve"
       style="font-style:normal;font-weight:normal;font-size:21.60000038px;line-height:125%;font-family:sans-serif;letter-spacing:0px;word-spacing:0px;fill:#0031be;fill-opacity:1;stroke:none;stroke-width:1px;stroke-linecap:butt;stroke-linejoin:miter;stroke-opacity:1"
       x="129.66922"
       y="419.78979"
       id="text4242-8-08"
       sodipodi:linespacing="125%"><tspan
         sodipodi:role="line"
         id="tspan4248-3-35"
         x="129.66922"
         y="419.78979">Bad</tspan></text>
    <text
       xml:space="preserve"
       style="font-style:normal;font-weight:normal;font-size:21.60000038px;line-height:125%;font-family:sans-serif;letter-spacing:0px;word-spacing:0px;fill:#0031be;fill-opacity:1;stroke:none;stroke-width:1px;stroke-linecap:butt;stroke-linejoin:miter;stroke-opacity:1"
       x="297.04715"
       y="419.12537"
       id="text4242-8-6-3"
       sodipodi:linespacing="125%"><tspan
         sodipodi:role="line"
         id="tspan4248-3-3-8"
         x="297.04715"
         y="419.12537">Average</tspan></text>
    <text
       xml:space="preserve"
       style="font-style:normal;font-weight:normal;font-size:21.60000038px;line-height:125%;font-family:sans-serif;letter-spacing:0px;word-spacing:0px;fill:#0031be;fill-opacity:1;stroke:none;stroke-width:1px;stroke-linecap:butt;stroke-linejoin:miter;stroke-opacity:1"
       x="485.14264"
       y="419.78979"
       id="text4242-8-0-3"
       sodipodi:linespacing="125%"><tspan
         sodipodi:role="line"
         id="tspan4248-3-9-9"
         x="485.14264"
         y="419.78979">Good</tspan></text>
    <text
       xml:space="preserve"
       style="font-style:normal;font-weight:normal;font-size:21.60000038px;line-height:125%;font-family:sans-serif;letter-spacing:0px;word-spacing:0px;fill:#0031be;fill-opacity:1;stroke:none;stroke-width:1px;stroke-linecap:butt;stroke-linejoin:miter;stroke-opacity:1"
       x="579.92468"
       y="419.78979"
       id="text4242-8-8-5"
       sodipodi:linespacing="125%"><tspan
         sodipodi:role="line"
         id="tspan4248-3-8-1"
         x="579.92468"
         y="419.78979">VeryGood</tspan></text>
    <rect
       style="fill:#ffff00;fill-opacity:1;stroke:#00b7bf;stroke-width:3.63640594;stroke-miterlimit:4;stroke-dasharray:none;stroke-opacity:1"
       id="rect4302-50"
       width="129.82074"
       height="70.677887"
       x="105.06448"
       y="445.77243" />
    <text
       xml:space="preserve"
       style="font-style:normal;font-weight:normal;font-size:12.96000004px;line-height:125%;font-family:sans-serif;text-align:start;letter-spacing:0px;word-spacing:0px;writing-mode:lr-tb;text-anchor:start;fill:#000000;fill-opacity:1;stroke:none;stroke-width:1px;stroke-linecap:butt;stroke-linejoin:miter;stroke-opacity:1"
       x="108.63584"
       y="461.2551"
       id="text4304-7"
       sodipodi:linespacing="125%"><tspan
         sodipodi:role="line"
         id="tspan4308-3"
         x="108.63584"
         y="461.2551">phrases :</tspan></text>
    <text
       xml:space="preserve"
       style="font-style:normal;font-weight:normal;font-size:12.96000004px;line-height:125%;font-family:sans-serif;letter-spacing:0px;word-spacing:0px;fill:#000000;fill-opacity:1;stroke:none;stroke-width:1px;stroke-linecap:butt;stroke-linejoin:miter;stroke-opacity:1"
       x="108.7604"
       y="481.82654"
       id="text4310-8"
       sodipodi:linespacing="125%"><tspan
         sodipodi:role="line"
         id="tspan4312-3"
         x="108.7604"
         y="481.82654">Support effort</tspan></text>
    <text
       xml:space="preserve"
       style="font-style:normal;font-weight:normal;font-size:12.96000004px;line-height:125%;font-family:sans-serif;letter-spacing:0px;word-spacing:0px;fill:#000000;fill-opacity:1;stroke:none;stroke-width:1px;stroke-linecap:butt;stroke-linejoin:miter;stroke-opacity:1"
       x="110.59103"
       y="500.11526"
       id="text4310-8-5"
       sodipodi:linespacing="125%"><tspan
         sodipodi:role="line"
         id="tspan4312-3-8"
         x="110.59103"
         y="500.11526">General effort</tspan></text>
    <rect
       style="fill:#ffff00;fill-opacity:1;stroke:#00b7bf;stroke-width:3.63640594;stroke-miterlimit:4;stroke-dasharray:none;stroke-opacity:1"
       id="rect4302-50-0"
       width="129.82074"
       height="70.677887"
       x="294.70737"
       y="447.05811" />
    <text
       xml:space="preserve"
       style="font-style:normal;font-weight:normal;font-size:12.96000004px;line-height:125%;font-family:sans-serif;text-align:start;letter-spacing:0px;word-spacing:0px;writing-mode:lr-tb;text-anchor:start;fill:#000000;fill-opacity:1;stroke:none;stroke-width:1px;stroke-linecap:butt;stroke-linejoin:miter;stroke-opacity:1"
       x="298.27872"
       y="462.5408"
       id="text4304-7-6"
       sodipodi:linespacing="125%"><tspan
         sodipodi:role="line"
         id="tspan4308-3-3"
         x="298.27872"
         y="462.5408">phrases :</tspan></text>
    <text
       xml:space="preserve"
       style="font-style:normal;font-weight:normal;font-size:12.96000004px;line-height:125%;font-family:sans-serif;letter-spacing:0px;word-spacing:0px;fill:#000000;fill-opacity:1;stroke:none;stroke-width:1px;stroke-linecap:butt;stroke-linejoin:miter;stroke-opacity:1"
       x="298.40326"
       y="483.11221"
       id="text4310-8-6"
       sodipodi:linespacing="125%"><tspan
         sodipodi:role="line"
         id="tspan4312-3-4"
         x="298.40326"
         y="483.11221">Support effort</tspan></text>
    <text
       xml:space="preserve"
       style="font-style:normal;font-weight:normal;font-size:12.96000004px;line-height:125%;font-family:sans-serif;letter-spacing:0px;word-spacing:0px;fill:#000000;fill-opacity:1;stroke:none;stroke-width:1px;stroke-linecap:butt;stroke-linejoin:miter;stroke-opacity:1"
       x="300.23389"
       y="501.40094"
       id="text4310-8-5-9"
       sodipodi:linespacing="125%"><tspan
         sodipodi:role="line"
         id="tspan4312-3-8-7"
         x="300.23389"
         y="501.40094">General effort</tspan></text>
    <rect
       style="fill:#ffff00;fill-opacity:1;stroke:#00b7bf;stroke-width:2.94224548;stroke-miterlimit:4;stroke-dasharray:none;stroke-opacity:1"
       id="rect4302-5-5"
       width="107.37204"
       height="55.94347"
       x="464.07455"
       y="459.56818" />
    <text
       xml:space="preserve"
       style="font-style:normal;font-weight:normal;font-size:12.96000004px;line-height:125%;font-family:sans-serif;text-align:start;letter-spacing:0px;word-spacing:0px;writing-mode:lr-tb;text-anchor:start;fill:#000000;fill-opacity:1;stroke:none;stroke-width:1px;stroke-linecap:butt;stroke-linejoin:miter;stroke-opacity:1"
       x="470.75931"
       y="478.25818"
       id="text4304-7-6-5"
       sodipodi:linespacing="125%"><tspan
         sodipodi:role="line"
         id="tspan4308-3-3-9"
         x="470.75931"
         y="478.25818">phrases :</tspan></text>
    <text
       xml:space="preserve"
       style="font-style:normal;font-weight:normal;font-size:12.96000004px;line-height:125%;font-family:sans-serif;letter-spacing:0px;word-spacing:0px;fill:#000000;fill-opacity:1;stroke:none;stroke-width:1px;stroke-linecap:butt;stroke-linejoin:miter;stroke-opacity:1"
       x="470.88388"
       y="498.82953"
       id="text4310-8-6-7"
       sodipodi:linespacing="125%"><tspan
         sodipodi:role="line"
         id="tspan4312-3-4-6"
         x="470.88388"
         y="498.82953">Results/Good</tspan></text>
    <rect
       style="fill:#ffff00;fill-opacity:1;stroke:#00b7bf;stroke-width:3.2318697;stroke-miterlimit:4;stroke-dasharray:none;stroke-opacity:1"
       id="rect4302-5-5-1"
       width="130.22528"
       height="55.653847"
       x="576.07648"
       y="458.42728" />
    <text
       xml:space="preserve"
       style="font-style:normal;font-weight:normal;font-size:12.96000004px;line-height:125%;font-family:sans-serif;text-align:start;letter-spacing:0px;word-spacing:0px;writing-mode:lr-tb;text-anchor:start;fill:#000000;fill-opacity:1;stroke:none;stroke-width:1px;stroke-linecap:butt;stroke-linejoin:miter;stroke-opacity:1"
       x="582.61646"
       y="476.97247"
       id="text4304-7-6-5-5"
       sodipodi:linespacing="125%"><tspan
         sodipodi:role="line"
         id="tspan4308-3-3-9-1"
         x="582.61646"
         y="476.97247">phrases :</tspan></text>
    <text
       xml:space="preserve"
       style="font-style:normal;font-weight:normal;font-size:12.96000004px;line-height:125%;font-family:sans-serif;letter-spacing:0px;word-spacing:0px;fill:#000000;fill-opacity:1;stroke:none;stroke-width:1px;stroke-linecap:butt;stroke-linejoin:miter;stroke-opacity:1"
       x="582.74103"
       y="497.54382"
       id="text4310-8-6-7-9"
       sodipodi:linespacing="125%"><tspan
         sodipodi:role="line"
         id="tspan4312-3-4-6-1"
         x="582.74103"
         y="497.54382">Results/Very good</tspan></text>
    <g
       id="g4870"
       transform="matrix(0.9,0,0,0.9,38.189147,30.271073)">
      <rect
         y="561.45184"
         x="72.66111"
         height="61.820629"
         width="146.10635"
         id="rect4302-7-9"
         style="fill:#f7f2e9;fill-opacity:1;stroke:#f05921;stroke-width:3.60794425;stroke-miterlimit:4;stroke-dasharray:none;stroke-opacity:1" />
      <text
         sodipodi:linespacing="125%"
         id="text4304-9-2"
         y="577.44257"
         x="76.845528"
         style="font-style:normal;font-weight:normal;font-size:14.39999962px;line-height:125%;font-family:sans-serif;text-align:start;letter-spacing:0px;word-spacing:0px;writing-mode:lr-tb;text-anchor:start;fill:#000000;fill-opacity:1;stroke:none;stroke-width:1px;stroke-linecap:butt;stroke-linejoin:miter;stroke-opacity:1"
         xml:space="preserve"><tspan
           y="577.44257"
           x="76.845528"
           id="tspan4308-9-0"
           sodipodi:role="line">face :</tspan></text>
    </g>
    <g
       id="g4875"
       transform="matrix(0.9,0,0,0.9,38.189147,30.270983)">
      <rect
         y="561.40906"
         x="288.33252"
         height="61.906399"
         width="139.04926"
         id="rect4302-7-56"
         style="fill:#f7f2e9;fill-opacity:1;stroke:#f05921;stroke-width:3.52217317;stroke-miterlimit:4;stroke-dasharray:none;stroke-opacity:1" />
      <text
         sodipodi:linespacing="125%"
         id="text4304-9-4"
         y="577.44257"
         x="292.55981"
         style="font-style:normal;font-weight:normal;font-size:14.39999962px;line-height:125%;font-family:sans-serif;text-align:start;letter-spacing:0px;word-spacing:0px;writing-mode:lr-tb;text-anchor:start;fill:#000000;fill-opacity:1;stroke:none;stroke-width:1px;stroke-linecap:butt;stroke-linejoin:miter;stroke-opacity:1"
         xml:space="preserve"><tspan
           y="577.44257"
           x="292.55981"
           id="tspan4308-9-2"
           sodipodi:role="line">face :</tspan></text>
    </g>
    <g
       id="g4880"
       transform="matrix(0.9,0,0,0.9,38.189147,31.55677)">
      <rect
         y="559.86328"
         x="472.50107"
         height="62.140648"
         width="120.71208"
         id="rect4302-7-6"
         style="fill:#f7f2e9;fill-opacity:1;stroke:#f05921;stroke-width:3.28792453;stroke-miterlimit:4;stroke-dasharray:none;stroke-opacity:1" />
      <text
         sodipodi:linespacing="125%"
         id="text4304-9-16"
         y="576.01398"
         x="476.84552"
         style="font-style:normal;font-weight:normal;font-size:14.39999962px;line-height:125%;font-family:sans-serif;text-align:start;letter-spacing:0px;word-spacing:0px;writing-mode:lr-tb;text-anchor:start;fill:#000000;fill-opacity:1;stroke:none;stroke-width:1px;stroke-linecap:butt;stroke-linejoin:miter;stroke-opacity:1"
         xml:space="preserve"><tspan
           y="576.01398"
           x="476.84552"
           id="tspan4308-9-46"
           sodipodi:role="line">face :</tspan></text>
    </g>
    <g
       id="g4885"
       transform="matrix(0.9,0,0,0.9,38.189147,31.556782)">
      <rect
         y="559.97168"
         x="602.60956"
         height="61.923824"
         width="137.63811"
         id="rect4302-7-3"
         style="fill:#f7f2e9;fill-opacity:1;stroke:#f05921;stroke-width:3.50474811;stroke-miterlimit:4;stroke-dasharray:none;stroke-opacity:1" />
      <text
         sodipodi:linespacing="125%"
         id="text4304-9-3"
         y="576.01398"
         x="608.27411"
         style="font-style:normal;font-weight:normal;font-size:14.39999962px;line-height:125%;font-family:sans-serif;text-align:start;letter-spacing:0px;word-spacing:0px;writing-mode:lr-tb;text-anchor:start;fill:#000000;fill-opacity:1;stroke:none;stroke-width:1px;stroke-linecap:butt;stroke-linejoin:miter;stroke-opacity:1"
         xml:space="preserve"><tspan
           y="576.01398"
           x="608.27411"
           id="tspan4308-9-7"
           sodipodi:role="line">face :</tspan></text>
    </g>
  </g>
</svg>
